50.0
50.3
50.6
50.9
51.2
51.5
51.8
52.1
52.4
52.7
53.0
53.3
53.6
53.9
54.2
54.5
54.8
55.1
55.4
55.7
56.0
56.0
56.1
56.2
56.3
56.4
56.5
56.6
56.7
56.8
56.9
57.0
57.1
57.2
57.3
57.4
57.5
57.6
57.7
57.8
57.9
58.0
58.1
58.2
58.3
58.4
58.5
58.6
58.7
58.8
58.9
59.0
59.1
59.2
59.3
59.4
59.5
59.6
59.7
59.8
59.9
60.0
60.1
60.2
60.3
60.4
60.5
60.6
60.7
60.8
60.9
61.0
61.1
61.2
61.3
61.4
61.5
61.6
61.7
61.8
61.9
62.0
62.1
62.2
62.3
62.4
62.5
62.6
62.7
62.8
62.9
63.0
63.1
63.2
63.3
63.4
63.5
63.6
63.7
63.8
63.9
64.0
63.6
63.2
62.8
62.4
62.0
61.6
61.2
60.8
60.4
60.0
59.6
59.2
58.8
58.4
58.0
57.6
57.2
56.8
56.4
56.0
55.6
55.2
54.8
54.4
54.0
53.6
53.2
52.8
52.4
52.0
51.6
51.2
50.8
50.4
50.0
49.6
49.2
48.8
48.4
48.0
48.0
48.2
48.4
48.6
48.8
49.0
49.2
49.4
49.6
49.8
50.0
50.2
50.4
50.6
50.8
51.0
51.2
51.4
51.6
51.8
52.0
52.2
52.4
52.6
52.8
53.0
53.2
53.4
53.6
53.8
54.0
54.2
54.4
54.6
54.8
55.0
55.2
55.4
55.6
55.8
56.0
55.7
55.4
55.1
54.8
54.5
54.2
53.9
53.6
53.3
53.0
52.7
52.4
52.1
51.8
51.5
51.2
50.9
50.6
50.3
