50.0
51.4
52.8
54.2
55.6
57.0
58.4
59.8
61.2
62.6
64.0
65.4
66.8
68.2
69.6
71.0
72.4
73.8
75.2
76.6
78.0
79.4
80.8
82.2
83.6
85.0
86.4
87.8
89.2
90.6
92.0
93.4
94.8
96.2
97.6
99.0
100.4
101.8
103.2
104.6
106.0
107.4
108.8
110.2
111.6
113.0
114.4
115.8
117.2
118.6
120.0
119.4
118.8
118.2
117.6
117.0
116.4
115.8
115.2
114.6
114.0
113.4
112.8
112.2
111.6
111.0
110.4
109.8
109.2
108.6
108.0
107.4
106.8
106.2
105.6
105.0
104.4
103.8
103.2
102.6
102.0
101.4
100.8
100.2
99.6
99.0
98.4
97.8
97.2
96.6
96.0
95.4
94.8
94.2
93.6
93.0
92.4
91.8
91.2
90.6
90.0
90.0
90.24
90.48
90.72
90.96
91.2
91.44
91.68
91.92
92.16
92.4
92.64
92.88
93.12
93.36
93.6
93.84
94.08
94.32
94.56
94.8
95.04
95.28
95.52
95.76
96.0
96.24
96.48
96.72
96.96
97.2
97.44
97.68
97.92
98.16
98.4
98.64
98.88
99.12
99.36
99.6
99.84
100.08
100.32
100.56
100.8
101.04
101.28
101.52
101.76
102.0
100.98
99.96
98.94
97.92
96.9
95.88
94.86
93.84
92.82
91.8
90.78
89.76
88.74
87.72
86.7
85.68
84.66
83.64
82.62
81.6
80.58
79.56
78.54
77.52
76.5
75.48
74.46
73.44
72.42
71.4
70.38
69.36
68.34
67.32
66.3
65.28
64.26
63.24
62.22
61.2
60.18
59.16
58.14
57.12
56.1
55.08
54.06
53.04
52.02
51.0
